Session 2 : semantic space
…
total_words <- foo %>% 
  group_by(doc_id) %>% 
  summarize(total = sum(n))

Avis_words <- left_join(foo, total_words) %>%
  mutate(Term_frequency=n/total)%>%
  group_by(doc_id)%>%
  summarise(word=lemma,rank = row_number(),
            n=n,
            Term_frequency=Term_frequency)
Avis_words

## # A tibble: 567,622 x 5
## # Groups:   doc_id [16,576]
##    doc_id word        rank     n Term_frequency
##    <chr>  <chr>      <int> <int>          <dbl>
##  1 doc1   avoir          1     2         0.0556
##  2 doc1   tlphone      2     2         0.0556
##  3 doc1   10mn           3     1         0.0278
##  4 doc1   1500euro       4     1         0.0278
##  5 doc1   accoucher      5     1         0.0278
##  6 doc1   aide           6     1         0.0278
##  7 doc1   allocation     7     1         0.0278
##  8 doc1   APL            8     1         0.0278
##  9 doc1   attente        9     1         0.0278
## 10 doc1   bte          10     1         0.0278
## # ... with 567,612 more rows
…
tfidf computing with tidytext function bind_tf_idf

Avis_tf_idf <- Avis_words %>%
  bind_tf_idf(word, doc_id, n)

Avis_tf_idf %>%
   select(-rank,n,Term_frequency) %>% 
  filter(tf_idf<0.5)%>%
  arrange(desc(tf_idf))

## # A tibble: 560,204 x 7
## # Groups:   doc_id [16,528]
##    doc_id   word           n Term_frequency     tf   idf tf_idf
##    <chr>    <chr>      <int>          <dbl>  <dbl> <dbl>  <dbl>
##  1 doc12268 devenir        1         0.125  0.125   4.00  0.500
##  2 doc8600  pension        1         0.125  0.125   4.00  0.500
##  3 doc13167 Iran           3         0.06   0.06    8.33  0.500
##  4 doc10978 vingtaine      1         0.0769 0.0769  6.50  0.500
##  5 doc12466 prcarit      1         0.0769 0.0769  6.50  0.500
##  6 doc14037 essaye         1         0.0769 0.0769  6.50  0.500
##  7 doc14048 covidre        1         0.0769 0.0769  6.50  0.500
##  8 doc2286  armer          1         0.0769 0.0769  6.50  0.500
##  9 doc555   rinscrire     2         0.0769 0.0769  6.50  0.500
## 10 doc6155  Sville        3         0.0769 0.0769  6.50  0.500
## # ... with 560,194 more rows
…
